Clustering Practice
…
Clustering Practice

Using dplyr, tidyr and other packages

First, we will practice with R built-in datasets, like USArrests

data("USArrests")
arrests_df = USArrests %>%
  as_tibble()
arrests_df

## # A tibble: 50 x 4
##    Murder Assault UrbanPop  Rape
##     <dbl>   <int>    <int> <dbl>
##  1   13.2     236       58  21.2
##  2   10       263       48  44.5
##  3    8.1     294       80  31  
##  4    8.8     190       50  19.5
##  5    9       276       91  40.6
##  6    7.9     204       78  38.7
##  7    3.3     110       77  11.1
##  8    5.9     238       72  15.8
##  9   15.4     335       80  31.9
## 10   17.4     211       60  25.8
## # ... with 40 more rows
…
##                  Score       Method Clusters
## Connectivity 5.5210317 hierarchical        2
## Dunn         0.2636646 hierarchical        2
## Silhouette   0.4084890        diana        2

So, according to the graphs and the above summary, we conclude that diana with \(k = 2\) is the best clustering method for this dataset. Now that we analysed this built-in data, lets move forward to a new real one:

Indian Primer League dataset

league_df = read.csv("datasets/total_data_na.csv") %>%
  tibble()
league_df

## # A tibble: 143 x 25
##    PLAYER Mat.x Inns.x    NO Runs.x    HS Avg.x    BF  SR.x  X100   X50   X4s
##    <fct>  <int>  <int> <int>  <int> <int> <fct> <int> <dbl> <int> <int> <int>
##  1 Aaron~    10      9     1    134    46 16.75   100 134       0     0     6
##  2 AB de~    12     11     2    480    90 53.33   275 175.      0     6    39
##  3 Abhis~     3      3     2     63    46 63       33 191.      0     0     3
##  4 Ajink~    15     14     1    370    65 28.46   313 118.      0     1    39
##  5 Alex ~     6      6     0    148    45 24.66   118 125.      0     0    13
##  6 Ambat~    16     16     2    602   100 43      402 150.      1     3    53
##  7 Andre~    16     14     3    316    88 28.72   171 185.      0     1    17
##  8 Andre~    14      8     2     32    14 5.33     38  84.2     0     0     2
##  9 Axar ~     9      8     2     80    19 13.33    69 116.      0     0     3
## 10 Ben C~     9      6     2     96    37 24       58 166.      0     0     5
## # ... with 133 more rows, and 13 more variables: X6s <int>, Mat.y <int>,
## #   Inns.y <int>, Ov <dbl>, Runs.y <int>, Wkts <int>, BBI <int>, Avg.y <fct>,
## #   Econ <dbl>, SR.y <fct>, X4w <int>, X5w <int>, y <int>
…
## Warning in mask$eval_all_mutate(dots[[i]]): NAs introduzidos por coero

## Warning in mask$eval_all_mutate(dots[[i]]): NAs introduzidos por coero

## Warning in mask$eval_all_mutate(dots[[i]]): NAs introduzidos por coero

league_df

## # A tibble: 143 x 23
##    PLAYER Mat.x[,1] Inns.x[,1] NO[,1] Runs.x[,1] HS[,1] Avg.x[,1]  BF[,1]
##    <fct>      <dbl>      <dbl>  <dbl>      <dbl>  <dbl>     <dbl>   <dbl>
##  1 Aaron~     0.446    0.543   -0.155    0.00940  0.402   -0.0392  0.0413
##  2 AB de~     0.776    0.907    0.459    1.98     1.78     2.14    1.50  
##  3 Abhis~    -0.705   -0.548    0.459   -0.395    0.402    2.72   -0.516 
##  4 Ajink~     1.27     1.45    -0.155    1.35     0.996    0.658   1.81  
##  5 Alex ~    -0.212   -0.00254 -0.768    0.0892   0.371    0.432   0.191 
##  6 Ambat~     1.43     1.82     0.459    2.68     2.09     1.52    2.55  
##  7 Andre~     1.43     1.45     1.07     1.05     1.72     0.674   0.632 
##  8 Andre~     1.10     0.361    0.459   -0.572   -0.599   -0.719  -0.474 
##  9 Axar ~     0.282    0.361    0.459   -0.298   -0.443   -0.243  -0.216 
## 10 Ben C~     0.282   -0.00254  0.459   -0.207    0.120    0.393  -0.308 
## # ... with 133 more rows, and 15 more variables: SR.x[,1] <dbl>,
## #   X100[,1] <dbl>, X50[,1] <dbl>, X4s[,1] <dbl>, X6s[,1] <dbl>,
## #   Mat.y[,1] <dbl>, Inns.y[,1] <dbl>, Ov[,1] <dbl>, Runs.y[,1] <dbl>,
## #   Wkts[,1] <dbl>, Avg.y[,1] <dbl>, Econ[,1] <dbl>, SR.y[,1] <dbl>,
## #   X4w[,1] <dbl>, X5w[,1] <dbl>
…
